RJ Dela Peña - Stores Sales
…
#So our top five for states sales are 
#California, New Yori, Texas, Pennsylvania and Illinois

#Table for better view
raw_sales_data %>% 
  count(State, sort = TRUE)

# A tibble: 48 × 2
   State            n
   <chr>        <int>
 1 California     444
 2 New York       236
 3 Texas          202
 4 Pennsylvania   125
 5 Illinois       123
 6 Washington     114
 7 Ohio            93
 8 Florida         85
 9 Virginia        52
10 Colorado        51
# ℹ 38 more rows
…
