Data Science Portolio - Hotel Bookings Predictive Model
…
#> # A tibble: 1 × 3
#>    mtry min_n .config              
#>   <int> <int> <chr>                
#> 1     8     7 Preprocessor1_Model13

We will collect the data we need to plot an ROC AUC curve and compare it with the penalized Logistic Regression ROC AUC Curve

rf_res %>% 
  collect_predictions()

# A tibble: 187,500 × 8
   id         .pred_children .pred_none  .row  mtry min_n children .config      
   <chr>               <dbl>      <dbl> <int> <int> <int> <fct>    <chr>        
 1 validation       0.148         0.852    13    12     7 none     Preprocessor…
 2 validation       0.0262        0.974    20    12     7 none     Preprocessor…
 3 validation       0.472         0.528    22    12     7 children Preprocessor…
 4 validation       0.00918       0.991    23    12     7 none     Preprocessor…
 5 validation       0.0110        0.989    31    12     7 none     Preprocessor…
 6 validation       0.000643      0.999    38    12     7 none     Preprocessor…
 7 validation       0             1        39    12     7 none     Preprocessor…
 8 validation       0.00235       0.998    50    12     7 none     Preprocessor…
 9 validation       0.0217        0.978    54    12     7 none     Preprocessor…
10 validation       0.0389        0.961    57    12     7 children Preprocessor…
# ℹ 187,490 more rows
…
