Data Science Portolio - Telecom Customer Churn Analysis
…
all_cores = parallel::detectCores(logical = FALSE)
doParallel::registerDoParallel(cores = all_cores)

churn_data = fread("churn_data.csv") %>% as_tibble()

Exploratory Data Analysis

Check Cardinality

#Check State column 
churn_data %>% 
  count(State, sort = TRUE)

# A tibble: 51 × 2
   State     n
   <chr> <int>
 1 WV      106
 2 MN       84
 3 NY       83
 4 AL       80
 5 OH       78
 6 OR       78
 7 WI       78
 8 VA       77
 9 WY       77
10 CT       74
# ℹ 41 more rows
…
Calculate Accuracy of our model

churn_testing_pred = predict(churn_fit, test_data) %>% 
  bind_cols(predict(churn_fit, test_data, type = "prob")) %>% 
  bind_cols(test_data %>% select(Churn))

churn_testing_pred

# A tibble: 834 × 4
   .pred_class .pred_0 .pred_1 Churn
   <fct>         <dbl>   <dbl> <fct>
 1 0             0.978  0.0217 0    
 2 0             0.763  0.237  1    
 3 0             0.962  0.0383 0    
 4 0             0.941  0.0594 0    
 5 0             0.918  0.0825 0    
 6 0             0.915  0.0855 0    
 7 0             0.969  0.0315 0    
 8 0             0.774  0.226  0    
 9 0             0.950  0.0498 0    
10 0             0.904  0.0957 0    
# ℹ 824 more rows
…
dtree_testing_pred = predict(dtree_fit, dtree_test) %>% 
  bind_cols(predict(dtree_fit, dtree_test, type = "prob")) %>% 
  bind_cols(dtree_test %>% select(Churn))

dtree_testing_pred

# A tibble: 834 × 4
   .pred_class .pred_0 .pred_1 Churn
   <fct>         <dbl>   <dbl> <fct>
 1 0             0.972  0.0276 0    
 2 0             0.972  0.0276 0    
 3 0             0.972  0.0276 0    
 4 0             0.972  0.0276 0    
 5 0             0.972  0.0276 0    
 6 0             0.972  0.0276 0    
 7 0             0.843  0.157  0    
 8 0             0.972  0.0276 0    
 9 0             0.972  0.0276 0    
10 0             0.972  0.0276 1    
# ℹ 824 more rows
…
